D:\Desktop\1732627-result-parser-with-parenthesis\1732627-result-parser-with-parenthesis\src\test\java\ca\candrade\tests\DivisionByZeroTest.java
D:\Desktop\1732627-result-parser-with-parenthesis\1732627-result-parser-with-parenthesis\src\test\java\ca\candrade\tests\NonBinaryExpressionTest.java
D:\Desktop\1732627-result-parser-with-parenthesis\1732627-result-parser-with-parenthesis\src\test\java\ca\candrade\tests\NonMatchingParenthesisTest.java
D:\Desktop\1732627-result-parser-with-parenthesis\1732627-result-parser-with-parenthesis\src\test\java\ca\candrade\tests\ResultParserWithParenthesisTest.java
D:\Desktop\1732627-result-parser-with-parenthesis\1732627-result-parser-with-parenthesis\src\test\java\ca\candrade\tests\InvalidInputQueueStringTest.java
