-------------------------------------------------------------------------------
Test set: ca.candrade.tests.DivisionByZeroTest
-------------------------------------------------------------------------------
Tests run: 3, Failures: 0, Errors: 0, Skipped: 0, Time elapsed: 0.057 sec
