-------------------------------------------------------------------------------
Test set: ca.candrade.tests.ResultParserWithParenthesisTest
-------------------------------------------------------------------------------
Tests run: 40, Failures: 0, Errors: 0, Skipped: 0, Time elapsed: 0.024 sec
